<svg width="17" height="17" viewBox="0 0 17 17" fill="none" xmlns="http://www.w3.org/2000/svg">
<path fill-rule="evenodd" clip-rule="evenodd" d="M7.09021 7.89426L0 14.8726L1.59907 16.0738L8.49999 9.28179L15.4009 16.0738L17 14.8726L9.90978 7.89426L16.7101 1.20124L15.111 0L8.49999 6.50672L1.88895 0L0.289882 1.20124L7.09021 7.89426Z" fill="#EF6344"/>
</svg>
