<svg width="19" height="20" viewBox="0 0 19 20" fill="none" xmlns="http://www.w3.org/2000/svg">
<path d="M16.4766 2.23047C16.0312 1.83464 15.4004 1.47591 14.584 1.1543C13.248 0.659505 11.6647 0.39974 9.83398 0.375H9.01758C8.34961 0.375 7.69401 0.424479 7.05078 0.523438C6.13542 0.647135 5.31901 0.832682 4.60156 1.08008C3.6862 1.40169 2.94401 1.82227 2.375 2.3418C1.73177 2.98503 1.26172 3.8138 0.964844 4.82812C0.692708 5.74349 0.544271 6.85677 0.519531 8.16797C0.470052 9.40495 0.507161 10.3945 0.630859 11.1367C0.804036 12.4232 1.16276 13.487 1.70703 14.3281C2.44922 15.3919 3.50065 16.1094 4.86133 16.4805V18.6328C4.88607 18.7812 4.92318 18.9173 4.97266 19.041C5.04688 19.1895 5.1582 19.2884 5.30664 19.3379C5.55404 19.4121 5.78906 19.375 6.01172 19.2266C6.13542 19.1276 6.33333 18.9297 6.60547 18.6328L6.90234 18.2988C7.125 18.0514 7.49609 17.6432 8.01562 17.0742C9.30208 17.1732 10.5885 17.1361 11.875 16.9629C12.6914 16.8639 13.2852 16.7526 13.6562 16.6289L13.8789 16.5918C14.8685 16.3444 15.6725 15.9733 16.291 15.4785C17.429 14.5384 18.1094 13.1654 18.332 11.3594C18.6042 9.08333 18.5671 7.14128 18.2207 5.5332C17.8743 4.04883 17.293 2.94792 16.4766 2.23047ZM16.9961 11.0254C16.7982 12.5098 16.2415 13.623 15.3262 14.3652C14.8314 14.7611 14.1882 15.0579 13.3965 15.2559L13.1738 15.293C12.8522 15.3919 12.3327 15.4909 11.6152 15.5898C10.502 15.7383 9.40104 15.7754 8.3125 15.7012L7.27344 16.9629C6.53125 17.8288 6.03646 18.3854 5.78906 18.6328C5.66536 18.7565 5.55404 18.7936 5.45508 18.7441C5.38086 18.7194 5.34375 18.6204 5.34375 18.4473L5.38086 15.2559C4.26758 14.9342 3.41406 14.3529 2.82031 13.5117C2.375 12.819 2.07812 11.9531 1.92969 10.9141C1.85547 10.3203 1.83073 9.49154 1.85547 8.42773V8.20508C1.88021 7.11654 2.00391 6.1888 2.22656 5.42188C2.4987 4.55599 2.9069 3.86328 3.45117 3.34375C3.92122 2.89844 4.53971 2.53971 5.30664 2.26758C5.92513 2.06966 6.61784 1.92122 7.38477 1.82227C7.92904 1.74805 8.48568 1.71094 9.05469 1.71094H9.75977C11.3184 1.73568 12.679 1.94596 13.8418 2.3418C14.584 2.58919 15.1283 2.8737 15.4746 3.19531C16.1673 3.78906 16.6497 4.74154 16.9219 6.05273C17.2188 7.43815 17.2435 9.0957 16.9961 11.0254ZM11.8379 8.01953C11.8379 8.19271 11.7513 8.2793 11.5781 8.2793C11.4297 8.2793 11.3555 8.20508 11.3555 8.05664C11.306 7.26497 10.8978 6.8444 10.1309 6.79492C9.98242 6.79492 9.9082 6.7207 9.9082 6.57227C9.93294 6.39909 10.0195 6.3125 10.168 6.3125C11.2318 6.36198 11.7884 6.93099 11.8379 8.01953ZM12.5801 8.42773C12.6048 7.63607 12.3698 6.9681 11.875 6.42383C11.3802 5.87956 10.6751 5.57031 9.75977 5.49609C9.61133 5.49609 9.53711 5.42188 9.53711 5.27344C9.56185 5.10026 9.64844 5.01367 9.79688 5.01367C10.8359 5.08789 11.64 5.44661 12.209 6.08984C12.8027 6.73307 13.0872 7.52474 13.0625 8.46484C13.0625 8.61328 12.9759 8.6875 12.8027 8.6875C12.6543 8.6875 12.5801 8.60091 12.5801 8.42773ZM14.3242 8.94727C14.3242 9.0957 14.2376 9.16992 14.0645 9.16992C13.916 9.16992 13.8418 9.0957 13.8418 8.94727C13.8418 7.48763 13.3965 6.32487 12.5059 5.45898C11.6895 4.66732 10.6504 4.27148 9.38867 4.27148C9.21549 4.27148 9.12891 4.19727 9.12891 4.04883C9.12891 3.87565 9.21549 3.78906 9.38867 3.78906C10.7988 3.78906 11.9616 4.24674 12.877 5.16211C13.8418 6.10221 14.3242 7.36393 14.3242 8.94727ZM13.916 12.584C13.6686 13.0046 13.3965 13.3262 13.0996 13.5488C12.7038 13.8457 12.3327 13.9323 11.9863 13.8086C11.5658 13.6849 10.9844 13.4251 10.2422 13.0293C9.42578 12.584 8.73307 12.1387 8.16406 11.6934C7.59505 11.248 7.07552 10.7285 6.60547 10.1348C6.20964 9.61523 5.83854 9.05859 5.49219 8.46484C5.14583 7.84635 4.88607 7.30208 4.71289 6.83203L4.49023 6.34961C4.39128 6.00326 4.47786 5.63216 4.75 5.23633C4.9974 4.93945 5.33138 4.66732 5.75195 4.41992C6.09831 4.24674 6.39518 4.29622 6.64258 4.56836L7.31055 5.38477C7.48372 5.63216 7.66927 5.92904 7.86719 6.27539C7.96615 6.47331 7.99089 6.67122 7.94141 6.86914C7.91667 7.04232 7.84245 7.17839 7.71875 7.27734L7.27344 7.61133C7.17448 7.68555 7.11263 7.79688 7.08789 7.94531V8.13086L7.23633 8.53906C7.36003 8.86068 7.52083 9.16992 7.71875 9.4668C7.99089 9.88737 8.3125 10.2337 8.68359 10.5059C9.12891 10.877 9.63607 11.1367 10.2051 11.2852L10.3906 11.248C10.5391 11.2233 10.6504 11.1615 10.7246 11.0625L11.0957 10.6172C11.1947 10.4935 11.3307 10.4193 11.5039 10.3945C11.7018 10.3451 11.8874 10.3822 12.0605 10.5059C12.7533 10.877 13.3223 11.2728 13.7676 11.6934C14.0397 11.9408 14.0892 12.2376 13.916 12.584Z" fill="#873395"/>
</svg>
